Work/sky130RTLDesignAndSynthesisWorkshop/verilog_files/tb_mux_generate.vcd
$date
	Sun Jun 27 05:04:08 2021
$end
$version
	Icarus Verilog
$end
$timescale
	1ps
$end
$scope module tb_mux_generate $end
$var wire 1 ! y $end
$var reg 1 " clk $end
$var reg 1 # i0 $end
$var reg 1 $ i1 $end
$var reg 1 % i2 $end
$var reg 1 & i3 $end
$var reg 1 ' reset $end
$var reg 2 ( sel [1:0] $end
$scope module uut $end
$var wire 1 ) _00_ $end
$var wire 1 * _01_ $end
$var wire 1 + _08_ $end
$var wire 1 , _09_ $end
$var wire 1 - _10_ $end
$var wire 1 . _11_ $end
$var wire 1 / _12_ $end
$var wire 1 # i0 $end
$var wire 1 $ i1 $end
$var wire 1 % i2 $end
$var wire 1 & i3 $end
$var wire 32 0 k [31:0] $end
$var wire 2 1 sel [1:0] $end
$var wire 4 2 i_int [3:0] $end
$var wire 1 3 _14_ $end
$var wire 1 4 _13_ $end
$var wire 1 5 _07_ $end
$var reg 1 ! y $end
$scope module _15_ $end
$var wire 1 , A0 $end
$var wire 1 - A1 $end
$var wire 1 . A2 $end
$var wire 1 / A3 $end
$var wire 1 4 S0 $end
$var wire 1 3 S1 $end
$var wire 1 6 VGND $end
$var wire 1 7 VNB $end
$var wire 1 8 VPB $end
$var wire 1 9 VPWR $end
$var wire 1 5 X $end
$scope module base $end
$var wire 1 , A0 $end
$var wire 1 - A1 $end
$var wire 1 . A2 $end
$var wire 1 / A3 $end
$var wire 1 4 S0 $end
$var wire 1 3 S1 $end
$var wire 1 : VGND $end
$var wire 1 ; VNB $end
$var wire 1 < VPB $end
$var wire 1 = VPWR $end
$var wire 1 5 X $end
$var wire 1 > mux_4to20_out_X $end
$upscope $end
$upscope $end
$upscope $end
$upscope $end
$enddefinitions $end
#0
$dumpvars
0>
1=
1<
0;
0:
19
18
07
06
05
x4
x3
b0 2
bx 1
b100 0
0/
0.
0-
0,
0+
0*
0)
bx (
0'
0&
0%
0$
0#
0"
0!
$end
#1000
03
04
b0 (
b0 1
1'
#11000
0'
#17000
1!
1)
15
1>
1,
b1 2
1#
#34000
0!
0)
05
0>
0,
b0 2
0#
#37000
1-
b10 2
1$
#51000
1!
1)
15
1>
1,
b11 2
1#
#68000
0!
0)
05
0>
0,
b10 2
0#
#74000
0-
b0 2
0$
#85000
1!
1)
15
1>
1,
b1 2
1#
#88000
1.
b101 2
1%
#102000
0!
0)
05
0>
0,
b100 2
0#
#111000
1-
b110 2
1$
#119000
1!
1)
15
1>
1,
b111 2
1#
#136000
0!
0)
05
0>
0,
b110 2
0#
#148000
0-
b100 2
0$
#153000
1!
1)
15
1>
1,
b101 2
1#
#155000
1/
b1101 2
1&
#170000
0!
0)
05
0>
0,
b1100 2
0#
#176000
0.
b1000 2
0%
#185000
1-
b1010 2
1$
#187000
1!
1)
15
1>
1,
b1011 2
1#
#204000
0!
0)
05
0>
0,
b1010 2
0#
#221000
1!
1)
15
1>
1,
b1011 2
1#
#222000
0-
b1001 2
0$
#238000
0!
0)
05
0>
0,
b1000 2
0#
#255000
1!
1)
15
1>
1,
b1001 2
1#
#259000
1-
b1011 2
1$
#264000
1.
b1111 2
1%
#272000
0!
0)
05
0>
0,
b1110 2
0#
#289000
1!
1)
15
1>
1,
b1111 2
1#
#296000
0-
b1101 2
0$
#300000
0!
0)
05
0>
14
b1 (
b1 1
1"
#306000
0,
b1100 2
0#
#310000
0/
b100 2
0&
#323000
1,
b101 2
1#
#333000
1!
1)
15
1>
1-
b111 2
1$
#340000
0,
b110 2
0#
#352000
0.
b10 2
0%
#357000
1,
b11 2
1#
#370000
0!
0)
05
0>
0-
b1 2
0$
#374000
0,
b0 2
0#
#391000
1,
b1 2
1#
#407000
1!
1)
15
1>
1-
b11 2
1$
#408000
0,
b10 2
0#
#425000
1,
b11 2
1#
#440000
1.
b111 2
1%
#442000
0,
b110 2
0#
#444000
0!
0)
05
0>
0-
b100 2
0$
#459000
1,
b101 2
1#
#465000
1/
b1101 2
1&
#476000
0,
b1100 2
0#
#481000
1!
1)
15
1>
1-
b1110 2
1$
#493000
1,
b1111 2
1#
#510000
0,
b1110 2
0#
#518000
0!
0)
05
0>
0-
b1100 2
0$
#527000
1,
b1101 2
1#
#528000
0.
b1001 2
0%
#544000
0,
b1000 2
0#
#555000
1!
1)
15
1>
1-
b1010 2
1$
#561000
1,
b1011 2
1#
#578000
0,
b1010 2
0#
#592000
0!
0)
05
0>
0-
b1000 2
0$
#595000
1,
b1001 2
1#
#600000
0"
#612000
0,
b1000 2
0#
#616000
1.
b1100 2
1%
#620000
0/
b100 2
0&
#629000
1!
1)
15
1>
1,
1#
1-
b111 2
1$
#646000
0,
b110 2
0#
#663000
1,
b111 2
1#
#666000
0!
0)
05
0>
0-
b101 2
0$
#680000
0,
b100 2
0#
#697000
1,
b101 2
1#
#703000
1!
1)
15
1>
1-
b111 2
1$
#704000
0.
b11 2
0%
#714000
0,
b10 2
0#
#731000
1,
b11 2
1#
#740000
0!
0)
05
0>
0-
b1 2
0$
#748000
0,
b0 2
0#
#765000
1,
b1 2
1#
#775000
1/
b1001 2
1&
#777000
1!
1)
15
1>
1-
b1011 2
1$
#782000
0,
b1010 2
0#
#792000
1.
b1110 2
1%
#799000
1,
b1111 2
1#
#814000
0!
0)
05
0>
0-
b1101 2
0$
#816000
0,
b1100 2
0#
#833000
1,
b1101 2
1#
#850000
0,
b1100 2
0#
#851000
1!
1)
15
1>
1-
b1110 2
1$
#867000
1,
b1111 2
1#
#880000
0.
b1011 2
0%
#884000
0,
b1010 2
0#
#888000
0!
0)
05
0>
0-
b1000 2
0$
#900000
13
04
b10 (
b10 1
1"
#901000
1,
b1001 2
1#
#918000
0,
b1000 2
0#
#925000
1-
b1010 2
1$
#930000
0/
b10 2
0&
#935000
1,
b11 2
1#
#952000
0,
b10 2
0#
#962000
0-
b0 2
0$
#968000
1!
1)
15
1>
1.
b100 2
1%
#969000
1,
b101 2
1#
#986000
0,
b100 2
0#
#999000
1-
b110 2
1$
#1003000
1,
b111 2
1#
#1020000
0,
b110 2
0#
#1036000
0-
b100 2
0$
#1037000
1,
b101 2
1#
#1054000
0,
b100 2
0#
#1056000
0!
0)
05
0>
0.
b0 2
0%
#1071000
1,
b1 2
1#
#1073000
1-
b11 2
1$
#1085000
1/
b1011 2
1&
#1088000
0,
b1010 2
0#
#1105000
1,
b1011 2
1#
#1110000
0-
b1001 2
0$
#1122000
0,
b1000 2
0#
#1139000
1,
b1001 2
1#
#1144000
1!
1)
15
1>
1.
b1101 2
1%
#1147000
1-
b1111 2
1$
#1156000
0,
b1110 2
0#
#1173000
1,
b1111 2
1#
#1184000
0-
b1101 2
0$
#1190000
0,
b1100 2
0#
#1200000
0"
#1207000
1,
b1101 2
1#
#1221000
1-
b1111 2
1$
#1224000
0,
b1110 2
0#
#1232000
0!
0)
05
0>
0.
b1010 2
0%
#1240000
0/
b10 2
0&
#1241000
1,
b11 2
1#
#1258000
0,
0#
0-
b0 2
0$
#1275000
1,
b1 2
1#
#1292000
0,
b0 2
0#
#1295000
1-
b10 2
1$
#1309000
1,
b11 2
1#
#1320000
1!
1)
15
1>
1.
b111 2
1%
#1326000
0,
b110 2
0#
#1332000
0-
b100 2
0$
#1343000
1,
b101 2
1#
#1360000
0,
b100 2
0#
#1369000
1-
b110 2
1$
#1377000
1,
b111 2
1#
#1394000
0,
b110 2
0#
#1395000
1/
b1110 2
1&
#1406000
0-
b1100 2
0$
#1408000
0!
0)
05
0>
0.
b1000 2
0%
#1411000
1,
b1001 2
1#
#1428000
0,
b1000 2
0#
#1443000
1-
b1010 2
1$
#1445000
1,
b1011 2
1#
#1462000
0,
b1010 2
0#
#1479000
1,
b1011 2
1#
#1480000
0-
b1001 2
0$
#1496000
1!
1)
15
1>
0,
0#
1.
b1100 2
1%
#1500000
14
b11 (
b11 1
1"
#1513000
1,
b1101 2
1#
#1517000
1-
b1111 2
1$
#1530000
0,
b1110 2
0#
#1547000
1,
b1111 2
1#
#1550000
0!
0)
05
0>
0/
b111 2
0&
#1554000
0-
b101 2
0$
#1564000
0,
b100 2
0#
#1581000
1,
b101 2
1#
#1584000
0.
b1 2
0%
#1591000
1-
b11 2
1$
#1598000
0,
b10 2
0#
#1615000
1,
b11 2
1#
#1628000
0-
b1 2
0$
#1632000
0,
b0 2
0#
#1649000
1,
b1 2
1#
#1665000
1-
b11 2
1$
#1666000
0,
b10 2
0#
#1672000
1.
b110 2
1%
#1683000
1,
b111 2
1#
#1700000
0,
b110 2
0#
#1702000
0-
b100 2
0$
#1705000
1!
1)
15
1>
1/
b1100 2
1&
#1717000
1,
b1101 2
1#
#1734000
0,
b1100 2
0#
#1739000
1-
b1110 2
1$
#1751000
1,
b1111 2
1#
#1760000
0.
b1011 2
0%
#1768000
0,
b1010 2
0#
#1776000
0-
b1000 2
0$
#1785000
1,
b1001 2
1#
#1800000
0"
#1802000
0,
b1000 2
0#
#1813000
1-
b1010 2
1$
#1819000
1,
b1011 2
1#
#1836000
0,
b1010 2
0#
#1848000
1.
b1110 2
1%
#1850000
0-
b1100 2
0$
#1853000
1,
b1101 2
1#
#1860000
0!
0)
05
0>
0/
b101 2
0&
#1870000
0,
b100 2
0#
#1887000
1,
1#
1-
b111 2
1$
#1904000
0,
b110 2
0#
#1921000
1,
b111 2
1#
#1924000
0-
b101 2
0$
#1936000
0.
b1 2
0%
#1938000
0,
b0 2
0#
#1955000
1,
b1 2
1#
#1961000
1-
b11 2
1$
#1972000
0,
b10 2
0#
#1989000
1,
b11 2
1#
#1998000
0-
b1 2
0$
#2006000
0,
b0 2
0#
#2015000
1!
1)
15
1>
1/
b1000 2
1&
#2023000
1,
b1001 2
1#
#2024000
1.
b1101 2
1%
#2035000
1-
b1111 2
1$
#2040000
0,
b1110 2
0#
#2057000
1,
b1111 2
1#
#2072000
0-
b1101 2
0$
#2074000
0,
b1100 2
0#
#2091000
1,
b1101 2
1#
#2100000
03
04
b0 (
b0 1
1"
#2108000
0!
0)
05
0>
0,
b1100 2
0#
#2109000
1-
b1110 2
1$
#2112000
0.
b1010 2
0%
#2125000
1!
1)
15
1>
1,
b1011 2
1#
#2142000
0!
0)
05
0>
0,
b1010 2
0#
#2146000
0-
b1000 2
0$
#2159000
1!
1)
15
1>
1,
b1001 2
1#
#2170000
0/
b1 2
0&
#2176000
0!
0)
05
0>
0,
b0 2
0#
#2183000
1-
b10 2
1$
#2193000
1!
1)
15
1>
1,
b11 2
1#
#2200000
1.
b111 2
1%
#2210000
0!
0)
05
0>
0,
b110 2
0#
#2220000
0-
b100 2
0$
#2227000
1!
1)
15
1>
1,
b101 2
1#
#2244000
0!
0)
05
0>
0,
b100 2
0#
#2257000
1-
b110 2
1$
#2261000
1!
1)
15
1>
1,
b111 2
1#
#2278000
0!
0)
05
0>
0,
b110 2
0#
#2288000
0.
b10 2
0%
#2294000
0-
b0 2
0$
#2295000
1!
1)
15
1>
1,
b1 2
1#
#2312000
0!
0)
05
0>
0,
b0 2
0#
#2325000
1/
b1000 2
1&
#2329000
1!
1)
15
1>
1,
b1001 2
1#
#2331000
1-
b1011 2
1$
#2346000
0!
0)
05
0>
0,
b1010 2
0#
#2363000
1!
1)
15
1>
1,
b1011 2
1#
#2368000
0-
b1001 2
0$
#2376000
1.
b1101 2
1%
#2380000
0!
0)
05
0>
0,
b1100 2
0#
#2397000
1!
1)
15
1>
1,
b1101 2
1#
#2400000
0"
#2405000
1-
b1111 2
1$
#2414000
0!
0)
05
0>
0,
b1110 2
0#
#2431000
1!
1)
15
1>
1,
b1111 2
1#
#2442000
0-
b1101 2
0$
#2448000
0!
0)
05
0>
0,
b1100 2
0#
#2464000
0.
b1000 2
0%
#2465000
1!
1)
15
1>
1,
b1001 2
1#
#2479000
1-
b1011 2
1$
#2480000
0/
b11 2
0&
#2482000
0!
0)
05
0>
0,
b10 2
0#
#2499000
1!
1)
15
1>
1,
b11 2
1#
#2516000
0!
0)
05
0>
0,
0#
0-
b0 2
0$
#2533000
1!
1)
15
1>
1,
b1 2
1#
#2550000
0!
0)
05
0>
0,
b0 2
0#
#2552000
1.
b100 2
1%
#2553000
1-
b110 2
1$
#2567000
1!
1)
15
1>
1,
b111 2
1#
#2584000
0!
0)
05
0>
0,
b110 2
0#
#2590000
0-
b100 2
0$
#2601000
1!
1)
15
1>
1,
b101 2
1#
#2618000
0!
0)
05
0>
0,
b100 2
0#
#2627000
1-
b110 2
1$
#2635000
1!
1)
15
1>
1,
1#
1/
b1111 2
1&
#2640000
0.
b1011 2
0%
#2652000
0!
0)
05
0>
0,
b1010 2
0#
#2664000
0-
b1000 2
0$
#2669000
1!
1)
15
1>
1,
b1001 2
1#
#2686000
0!
0)
05
0>
0,
b1000 2
0#
#2700000
14
b1 (
b1 1
1"
#2701000
1!
1)
15
1>
1-
b1010 2
1$
#2703000
1,
b1011 2
1#
#2720000
0,
b1010 2
0#
#2728000
1.
b1110 2
1%
#2737000
1,
b1111 2
1#
#2738000
0!
0)
05
0>
0-
b1101 2
0$
#2754000
0,
b1100 2
0#
#2771000
1,
b1101 2
1#
#2775000
1!
1)
15
1>
1-
b1111 2
1$
#2788000
0,
b1110 2
0#
#2790000
0/
b110 2
0&
#2805000
1,
b111 2
1#
#2812000
0!
0)
05
0>
0-
b101 2
0$
#2816000
0.
b1 2
0%
#2822000
0,
b0 2
0#
#2839000
1,
b1 2
1#
#2849000
1!
1)
15
1>
1-
b11 2
1$
#2856000
0,
b10 2
0#
#2873000
1,
b11 2
1#
#2886000
0!
0)
05
0>
0-
b1 2
0$
#2890000
0,
b0 2
0#
#2904000
1.
b100 2
1%
#2907000
1,
b101 2
1#
#2923000
1!
1)
15
1>
1-
b111 2
1$
#2924000
0,
b110 2
0#
#2941000
1,
b111 2
1#
#2945000
1/
b1111 2
1&
#2958000
0,
b1110 2
0#
#2960000
0!
0)
05
0>
0-
b1100 2
0$
#2975000
1,
b1101 2
1#
#2992000
0,
0#
0.
b1000 2
0%
#2997000
1!
1)
15
1>
1-
b1010 2
1$
#3000000
0"
#3009000
1,
b1011 2
1#
